{
  "name": "ui-kit",
  "$schema": "../../../../../../node_modules/nx/schemas/project-schema.json",
  "sourceRoot": "libs/frontend/common/shared/ui/ui-kit/src",
  "prefix": "nx-tutorial",
  "tags": ["scope:common", "type:shared"],
  "projectType": "library",
  "targets": {
    "build": {
      "executor": "@nx/angular:package",
      "outputs": ["{workspaceRoot}/dist/{projectRoot}"],
      "options": {
        "project": "libs/frontend/common/shared/ui/ui-kit/ng-package.json",
        "tailwindConfig": "libs/frontend/common/shared/ui/ui-kit/tailwind.config.js"
      },
      "configurations": {
        "production": {
          "tsConfig": "libs/frontend/common/shared/ui/ui-kit/tsconfig.lib.prod.json"
        },
        "development": {
          "tsConfig": "libs/frontend/common/shared/ui/ui-kit/tsconfig.lib.json"
        }
      },
      "defaultConfiguration": "production"
    },
    "test": {
      "executor": "@nx/jest:jest",
      "outputs": ["{workspaceRoot}/coverage/{projectRoot}"],
      "options": {
        "jestConfig": "libs/frontend/common/shared/ui/ui-kit/jest.config.ts"
      }
    },
    "lint": {
      "executor": "@nx/eslint:lint"
    },
    "semantic-release": {
      "executor": "@theunderscorer/nx-semantic-release:semantic-release",
      "options": {
        "buildTarget": "build",
        "outputPath": "dist/{projectRoot}",
        "github": false,
        "changelog": true,
        "npm": true,
        "tagFormat": "ui-kit-v${VERSION}"
      }
    }
  }
}
